{
"additions": [
    {
        
        "code": "BSC",
        "name": "Basic Salry",
        "type": "flat-unconditional",
        "per": "month",
        "flatAmount": "3000.00",
        "deductions": [
            {
                "name": "Absent",
                "type": "conditional",
                "per": "day",
                "conditions": [
                    {
                        "dayCode": "UL"
                    },
                    {
                        "dayCode": "SL"
                    },
                    {
                        "dayCode": "PL"
                    }
                ]
                
            }
        ]
    },
    {
        "name": "punctuality daily",
        "amount": 20.00,
        "payType": "daily",
        "condition": {
            "matches": ["PR"]   
        }

    },
    {
        "name": "Best Behaviour",
        "description": "if every day pr or al",
        "amount": 500.00,
        "payType": "monthly",
        "condition": {
            "comment": "",
            "conditionType": "everyday",
            "daysCount": 0,
            "matches": ["AL", "PR"]
        },
        "conditionTypes": "everyday, atleast-any, atleast-consecutive, atmost",
        "deductions": [

        ]
    },
    {
        "name": "Best Behaviour",
        "description": "if none is SL, UL",
        "amount": 500.00,
        "amountType": "flat",
        "condition": {
        },
        "conditionTypes": "everyday, atleast-any, atleast-consecutive, atmost",
        "deductions": [
            {
                "condition": {
                    "conditionType": "atleast-any",
                    "daysCount": 1,
                    "matches": ["AB", "UL", "SL", "EM"]
                },
                "amountType": "percent",
                "amount": 100
            }
        ]
    },
    {
        "code": "FA",
        "name": "Food Allowance",
        "type": "flat-condition",
        "per": "day",
        "flatAmount": "40.00",
        "conditions": [
            {
                "dayCode": "PR"
            }
        ]
    },
    {
        "code": "TA",
        "name": "Travel Allowance",
        "type": "flat-condition",
        "per": "day",
        "flatAmount": "50.00",
        "conditions": [
            {
                "dayCode": "PR"
            }
        ]
    },
    {
        "code": "PA",
        "name": "Professional Allowance",
        "type": "percent-uncondition",
        "per": "month",
        "flatAmount": null,
        "percentOf": "calculated-basic-salary",
        "percentValue": "10"
     
    }
],
"deductions": [
    {
        "deductionCode": "lateDeduction",
        "from": "net-salary | another salary item",
        "fromSalaryItem": "BSCID",
        "per": "minute",
        "conditions": [
            {
                ""
            }
        ]
    }
]
}